[ {
  "uid" : "78b8cd510da497e",
  "name" : "Сценарий №1",
  "time" : {
    "start" : 63646525924145,
    "stop" : 63646526120227,
    "duration" : 196082
  },
  "status" : "passed",
  "severity" : "normal"
}, {
  "uid" : "8d4648c9f68ab19d",
  "name" : "Сценарий №1",
  "time" : {
    "start" : 63646525630013,
    "stop" : 63646525774702,
    "duration" : 144689
  },
  "status" : "passed",
  "severity" : "normal"
}, {
  "uid" : "2d84ea974b09be5d",
  "name" : "Сценарий №1",
  "time" : {
    "start" : 63646523239086,
    "stop" : 63646523794750,
    "duration" : 555664
  },
  "status" : "passed",
  "severity" : "normal"
} ]