{
  "uid" : "83edc06c07f9ae9e47eb6dd1b683e4e2",
  "name" : "packages",
  "children" : [ {
    "name" : "Ввод начальных остатков (Ввод начальных остатков)",
    "children" : [ {
      "name" : "Сценарий №1",
      "uid" : "2d84ea974b09be5d",
      "parentUid" : "8e927e340d6328e0957773e3ba1dfb29",
      "status" : "passed",
      "time" : {
        "start" : 63646523239086,
        "stop" : 63646523794750,
        "duration" : 555664
      },
      "flaky" : false,
      "parameters" : [ ]
    } ],
    "uid" : "8e927e340d6328e0957773e3ba1dfb29"
  }, {
    "name" : "Создание нового вида номенклатуры типа Товар ((КиЗ) ГИСМ)",
    "children" : [ {
      "name" : "Сценарий №1",
      "uid" : "8d4648c9f68ab19d",
      "parentUid" : "74bdb7c0935b7f61eece8bcb849c2a96",
      "status" : "passed",
      "time" : {
        "start" : 63646525630013,
        "stop" : 63646525774702,
        "duration" : 144689
      },
      "flaky" : false,
      "parameters" : [ ]
    } ],
    "uid" : "74bdb7c0935b7f61eece8bcb849c2a96"
  }, {
    "name" : "Создание нового вида номенклатуры типа Услуга",
    "children" : [ {
      "name" : "Сценарий №1",
      "uid" : "78b8cd510da497e",
      "parentUid" : "f69427e40761ab42bbdc09ec9adf4825",
      "status" : "passed",
      "time" : {
        "start" : 63646525924145,
        "stop" : 63646526120227,
        "duration" : 196082
      },
      "flaky" : false,
      "parameters" : [ ]
    } ],
    "uid" : "f69427e40761ab42bbdc09ec9adf4825"
  } ]
}